sim/benes_net.vcd
$date
	Sat Feb 28 21:35:56 2026
$end
$version
	Icarus Verilog
$end
$timescale
	1ps
$end
$scope module tb_benes_net $end
$var wire 8 ! data_out [7:0] $end
$var parameter 32 " CLK_PER $end
$var parameter 32 # ELEMENTS $end
$var parameter 32 $ STAGES $end
$var parameter 32 % SW_PER_STAGE $end
$var parameter 32 & TOTAL_SW $end
$var reg 20 ' cfg [19:0] $end
$var reg 1 ( clk $end
$var reg 8 ) data_in [7:0] $end
$var reg 1 * enable $end
$var reg 1 + n_rst $end
$var reg 1024 , vcdfile [1023:0] $end
$scope module dut $end
$var wire 20 - cfg [19:0] $end
$var wire 1 ( clk $end
$var wire 8 . data_in [7:0] $end
$var wire 8 / data_out [7:0] $end
$var wire 1 * enable $end
$var wire 1 + n_rst $end
$var parameter 32 0 ELEMENTS $end
$var parameter 32 1 stages $end
$var parameter 32 2 sw_per_stage $end
$var parameter 32 3 total_sw $end
$scope function clog2 $end
$var integer 32 4 v [31:0] $end
$var integer 32 5 value [31:0] $end
$upscope $end
$scope begin net_stages[0] $end
$var parameter 2 6 i $end
$scope begin net_sw[0] $end
$var parameter 2 7 j $end
$scope module unit $end
$var wire 1 8 cfg $end
$var wire 1 ( clk $end
$var wire 1 * enable $end
$var wire 2 9 in [1:0] $end
$var wire 1 + n_rst $end
$var reg 2 : out [1:0] $end
$upscope $end
$upscope $end
$scope begin net_sw[1] $end
$var parameter 2 ; j $end
$scope module unit $end
$var wire 1 < cfg $end
$var wire 1 ( clk $end
$var wire 1 * enable $end
$var wire 2 = in [1:0] $end
$var wire 1 + n_rst $end
$var reg 2 > out [1:0] $end
$upscope $end
$upscope $end
$scope begin net_sw[2] $end
$var parameter 3 ? j $end
$scope module unit $end
$var wire 1 @ cfg $end
$var wire 1 ( clk $end
$var wire 1 * enable $end
$var wire 2 A in [1:0] $end
$var wire 1 + n_rst $end
$var reg 2 B out [1:0] $end
$upscope $end
$upscope $end
$scope begin net_sw[3] $end
$var parameter 3 C j $end
$scope module unit $end
$var wire 1 D cfg $end
$var wire 1 ( clk $end
$var wire 1 * enable $end
$var wire 2 E in [1:0] $end
$var wire 1 + n_rst $end
$var reg 2 F out [1:0] $end
$upscope $end
$upscope $end
$upscope $end
$scope begin net_stages[1] $end
$var parameter 2 G i $end
$scope begin net_sw[0] $end
$var parameter 2 H j $end
$scope module unit $end
$var wire 1 I cfg $end
$var wire 1 ( clk $end
$var wire 1 * enable $end
$var wire 2 J in [1:0] $end
$var wire 1 + n_rst $end
$var reg 2 K out [1:0] $end
$upscope $end
$upscope $end
$scope begin net_sw[1] $end
$var parameter 2 L j $end
$scope module unit $end
$var wire 1 M cfg $end
$var wire 1 ( clk $end
$var wire 1 * enable $end
$var wire 2 N in [1:0] $end
$var wire 1 + n_rst $end
$var reg 2 O out [1:0] $end
$upscope $end
$upscope $end
$scope begin net_sw[2] $end
$var parameter 3 P j $end
$scope module unit $end
$var wire 1 Q cfg $end
$var wire 1 ( clk $end
$var wire 1 * enable $end
$var wire 2 R in [1:0] $end
$var wire 1 + n_rst $end
$var reg 2 S out [1:0] $end
$upscope $end
$upscope $end
$scope begin net_sw[3] $end
$var parameter 3 T j $end
$scope module unit $end
$var wire 1 U cfg $end
$var wire 1 ( clk $end
$var wire 1 * enable $end
$var wire 2 V in [1:0] $end
$var wire 1 + n_rst $end
$var reg 2 W out [1:0] $end
$upscope $end
$upscope $end
$upscope $end
$scope begin net_stages[2] $end
$var parameter 3 X i $end
$scope begin net_sw[0] $end
$var parameter 2 Y j $end
$scope module unit $end
$var wire 1 Z cfg $end
$var wire 1 ( clk $end
$var wire 1 * enable $end
$var wire 2 [ in [1:0] $end
$var wire 1 + n_rst $end
$var reg 2 \ out [1:0] $end
$upscope $end
$upscope $end
$scope begin net_sw[1] $end
$var parameter 2 ] j $end
$scope module unit $end
$var wire 1 ^ cfg $end
$var wire 1 ( clk $end
$var wire 1 * enable $end
$var wire 2 _ in [1:0] $end
$var wire 1 + n_rst $end
$var reg 2 ` out [1:0] $end
$upscope $end
$upscope $end
$scope begin net_sw[2] $end
$var parameter 3 a j $end
$scope module unit $end
$var wire 1 b cfg $end
$var wire 1 ( clk $end
$var wire 1 * enable $end
$var wire 2 c in [1:0] $end
$var wire 1 + n_rst $end
$var reg 2 d out [1:0] $end
$upscope $end
$upscope $end
$scope begin net_sw[3] $end
$var parameter 3 e j $end
$scope module unit $end
$var wire 1 f cfg $end
$var wire 1 ( clk $end
$var wire 1 * enable $end
$var wire 2 g in [1:0] $end
$var wire 1 + n_rst $end
$var reg 2 h out [1:0] $end
$upscope $end
$upscope $end
$upscope $end
$scope begin net_stages[3] $end
$var parameter 3 i i $end
$scope begin net_sw[0] $end
$var parameter 2 j j $end
$scope module unit $end
$var wire 1 k cfg $end
$var wire 1 ( clk $end
$var wire 1 * enable $end
$var wire 2 l in [1:0] $end
$var wire 1 + n_rst $end
$var reg 2 m out [1:0] $end
$upscope $end
$upscope $end
$scope begin net_sw[1] $end
$var parameter 2 n j $end
$scope module unit $end
$var wire 1 o cfg $end
$var wire 1 ( clk $end
$var wire 1 * enable $end
$var wire 2 p in [1:0] $end
$var wire 1 + n_rst $end
$var reg 2 q out [1:0] $end
$upscope $end
$upscope $end
$scope begin net_sw[2] $end
$var parameter 3 r j $end
$scope module unit $end
$var wire 1 s cfg $end
$var wire 1 ( clk $end
$var wire 1 * enable $end
$var wire 2 t in [1:0] $end
$var wire 1 + n_rst $end
$var reg 2 u out [1:0] $end
$upscope $end
$upscope $end
$scope begin net_sw[3] $end
$var parameter 3 v j $end
$scope module unit $end
$var wire 1 w cfg $end
$var wire 1 ( clk $end
$var wire 1 * enable $end
$var wire 2 x in [1:0] $end
$var wire 1 + n_rst $end
$var reg 2 y out [1:0] $end
$upscope $end
$upscope $end
$upscope $end
$scope begin net_stages[4] $end
$var parameter 4 z i $end
$scope begin net_sw[0] $end
$var parameter 2 { j $end
$scope module unit $end
$var wire 1 | cfg $end
$var wire 1 ( clk $end
$var wire 1 * enable $end
$var wire 2 } in [1:0] $end
$var wire 1 + n_rst $end
$var reg 2 ~ out [1:0] $end
$upscope $end
$upscope $end
$scope begin net_sw[1] $end
$var parameter 2 !" j $end
$scope module unit $end
$var wire 1 "" cfg $end
$var wire 1 ( clk $end
$var wire 1 * enable $end
$var wire 2 #" in [1:0] $end
$var wire 1 + n_rst $end
$var reg 2 $" out [1:0] $end
$upscope $end
$upscope $end
$scope begin net_sw[2] $end
$var parameter 3 %" j $end
$scope module unit $end
$var wire 1 &" cfg $end
$var wire 1 ( clk $end
$var wire 1 * enable $end
$var wire 2 '" in [1:0] $end
$var wire 1 + n_rst $end
$var reg 2 (" out [1:0] $end
$upscope $end
$upscope $end
$scope begin net_sw[3] $end
$var parameter 3 )" j $end
$scope module unit $end
$var wire 1 *" cfg $end
$var wire 1 ( clk $end
$var wire 1 * enable $end
$var wire 2 +" in [1:0] $end
$var wire 1 + n_rst $end
$var reg 2 ," out [1:0] $end
$upscope $end
$upscope $end
$upscope $end
$upscope $end
$scope task _reset $end
$upscope $end
$scope task _send_data $end
$var reg 8 -" _addr_ [7:0] $end
$var reg 8 ." _frame_ [7:0] $end
$var integer 32 /" i [31:0] $end
$upscope $end
$upscope $end
$enddefinitions $end
$comment Show the parameter values. $end
$dumpall
b11 )"
b10 %"
b1 !"
b0 {
b100 z
b11 v
b10 r
b1 n
b0 j
b11 i
b11 e
b10 a
b1 ]
b0 Y
b10 X
b11 T
b10 P
b1 L
b0 H
b1 G
b11 C
b10 ?
b1 ;
b0 7
b0 6
b10100 3
b100 2
b101 1
b1000 0
b10100 &
b100 %
b101 $
b1000 #
b1010 "
$end
#0
$dumpvars
bx /"
bx ."
bx -"
b0 ,"
b0 +"
0*"
b0 ("
b0 '"
0&"
b0 $"
b0 #"
0""
b0 ~
b0 }
0|
b0 y
b0 x
0w
b0 u
b0 t
0s
b0 q
b0 p
0o
b0 m
b0 l
0k
b0 h
b0 g
0f
b0 d
b0 c
0b
b0 `
b0 _
0^
b0 \
b0 [
0Z
b0 W
b0 V
0U
b0 S
b0 R
0Q
b0 O
b0 N
0M
b0 K
b0 J
0I
b0 F
b0 E
0D
b0 B
b0 A
0@
b0 >
b0 =
0<
b0 :
b0 9
08
bx 5
bx 4
b0 /
b0 .
b0 -
b111001101101001011011010010111101100010011001010110111001100101011100110101111101101110011001010111010000101110011101100110001101100100 ,
0+
0*
b0 )
0(
b0 '
b0 !
$end
#5000
1+
1(
#10000
0(
#15000
1*
b1010101 ."
b0 -"
1(
#20000
0(
#25000
b1 9
b1 )
b1 .
b0 /"
1(
#30000
0(
#35000
b1 J
b1 :
b0 9
b0 )
b0 .
b1 /"
1(
#40000
0(
#45000
b1 [
b0 J
b1 K
b0 :
b1 9
b1 )
b1 .
b10 /"
1(
#50000
0(
#55000
b1 J
b0 [
b1 l
b1 :
b0 K
b1 \
b0 9
b0 )
b0 .
b11 /"
1(
#60000
0(
#65000
b1 }
b0 l
b1 [
b0 J
b1 m
b0 \
b1 K
b0 :
b1 9
b1 )
b1 .
b100 /"
1(
#70000
0(
#75000
b1 J
b0 [
b1 l
b0 }
b1 :
b0 K
b1 \
b0 m
b1 !
b1 /
b1 ~
b0 9
b0 )
b0 .
b101 /"
1(
#80000
0(
#85000
b1 }
b0 l
b1 [
b0 J
b0 !
b0 /
b0 ~
b1 m
b0 \
b1 K
b0 :
b1 9
b1 )
b1 .
b110 /"
1(
#90000
0(
#95000
b1 J
b0 [
b1 l
b0 }
b1 :
b0 K
b1 \
b0 m
b1 !
b1 /
b1 ~
b0 9
b0 )
b0 .
b111 /"
1(
#100000
0(
#105000
b0 l
b0 J
b0 !
b0 /
b0 ~
b0 \
b0 :
0*
b1000 /"
1(
#110000
0(
#115000
0+
1(
#120000
0(
#125000
1+
1(
#130000
0(
#135000
1*
b111 -"
1(
#140000
0(
#145000
b10 E
b10000000 )
b10000000 .
b0 /"
1(
#150000
0(
#155000
b10 V
b10 F
b0 E
b0 )
b0 .
b1 /"
1(
#160000
0(
#165000
b10 g
b0 V
b10 W
b0 F
b10 E
b10000000 )
b10000000 .
b10 /"
1(
#170000
0(
#175000
b10 V
b0 g
b10 x
b10 F
b0 W
b10 h
b0 E
b0 )
b0 .
b11 /"
1(
#180000
0(
#185000
b10 +"
b0 x
b10 g
b0 V
b10 y
b0 h
b10 W
b0 F
b10 E
b10000000 )
b10000000 .
b100 /"
1(
#190000
0(
#195000
b10 V
b0 g
b10 x
b0 +"
b10 F
b0 W
b10 h
b0 y
b10000000 !
b10000000 /
b10 ,"
b0 E
b0 )
b0 .
b101 /"
1(
#200000
0(
#205000
b10 +"
b0 x
b10 g
b0 V
b0 !
b0 /
b0 ,"
b10 y
b0 h
b10 W
b0 F
b10 E
b10000000 )
b10000000 .
b110 /"
1(
#210000
0(
#215000
b10 V
b0 g
b10 x
b0 +"
b10 F
b0 W
b10 h
b0 y
b10000000 !
b10000000 /
b10 ,"
b0 E
b0 )
b0 .
b111 /"
1(
#220000
0(
#225000
b0 x
b0 V
b0 !
b0 /
b0 ,"
b0 h
b0 F
0*
b1000 /"
1(
#230000
0(
#235000
0+
1(
#240000
0(
#245000
1+
1(
#250000
0(
#255000
18
1*
b1 ."
b0 -"
b1 '
b1 -
1(
#260000
0(
#265000
b1 9
b1 )
b1 .
b0 /"
1(
#270000
0(
#275000
b10 J
b10 :
b0 9
b0 )
b0 .
b1 /"
1(
#280000
0(
#285000
b10 [
b0 J
b10 K
b0 :
b10 /"
1(
#290000
0(
#295000
b0 [
b10 l
b0 K
b10 \
b11 /"
1(
#300000
0(
#305000
b10 }
b0 l
b10 m
b0 \
b100 /"
1(
#310000
0(
#315000
b0 }
b0 m
b10 !
b10 /
b10 ~
b101 /"
1(
#320000
0(
#325000
b0 !
b0 /
b0 ~
b110 /"
1(
#330000
0(
#335000
b111 /"
1(
#340000
0(
#345000
0*
b1000 /"
1(
#350000
0(
#355000
08
b0 '
b0 -
0+
1(
#360000
0(
#365000
1+
1(
